<?xml version="1.0" encoding="UTF-8" standalone="no"?>
<svg
   version="1.1"
   id="svg2579"
   width="512"
   height="512"
   viewBox="0 0 512 512"
   sodipodi:docname="iCombustible-logotipo.svg"
   inkscape:version="1.1 (c68e22c387, 2021-05-23)"
   xmlns:inkscape="http://www.inkscape.org/namespaces/inkscape"
   xmlns:sodipodi="http://sodipodi.sourceforge.net/DTD/sodipodi-0.dtd"
   xmlns="http://www.w3.org/2000/svg"
   xmlns:svg="http://www.w3.org/2000/svg"
   xmlns:rdf="http://www.w3.org/1999/02/22-rdf-syntax-ns#"
   xmlns:cc="http://creativecommons.org/ns#"
   xmlns:dc="http://purl.org/dc/elements/1.1/">
  <metadata
     id="metadata2585">
    <rdf:RDF>
      <cc:Work
         rdf:about="">
        <dc:format>image/svg+xml</dc:format>
        <dc:type
           rdf:resource="http://purl.org/dc/dcmitype/StillImage" />
        <dc:title />
      </cc:Work>
    </rdf:RDF>
  </metadata>
  <defs
     id="defs2583">
    <rect
       x="222.67206"
       y="157.99553"
       width="49.43133"
       height="50.3553"
       id="rect3192" />
  </defs>
  <sodipodi:namedview
     pagecolor="#ffffff"
     bordercolor="#666666"
     borderopacity="1"
     objecttolerance="10"
     gridtolerance="10"
     guidetolerance="10"
     inkscape:pageopacity="0"
     inkscape:pageshadow="2"
     inkscape:window-width="1920"
     inkscape:window-height="1017"
     id="namedview2581"
     showgrid="false"
     inkscape:zoom="1.0823091"
     inkscape:cx="186.63799"
     inkscape:cy="227.75379"
     inkscape:window-x="-8"
     inkscape:window-y="-8"
     inkscape:window-maximized="1"
     inkscape:current-layer="g2587"
     inkscape:pagecheckerboard="0" />
  <g
     inkscape:groupmode="layer"
     inkscape:label="Image"
     id="g2587">
    <g
       id="g3178"
       transform="matrix(1.0536911,0,0,1.0536911,-13.744923,-13.744924)" />
    <circle
       style="fill:none;stroke:#000000;stroke-width:29.7;stroke-dasharray:0,326.7;stroke-miterlimit:4;stroke-dashoffset:297"
       id="path3182"
       cx="244.3849"
       cy="272.10342"
       r="271.17947" />
    <ellipse
       style="fill:none;stroke:#000000;stroke-width:29.7;stroke-miterlimit:4;stroke-dasharray:0, 326.7;stroke-dashoffset:297"
       id="path3184"
       cx="13.397282"
       cy="11.087405"
       rx="43.887646"
       ry="52.665176" />
    <circle
       style="fill:#d8d8d8;fill-opacity:1;stroke:#f3db71;stroke-width:35;stroke-miterlimit:4;stroke-dasharray:none;stroke-dashoffset:297;stroke-opacity:1;opacity:1"
       id="path3188"
       cx="256"
       cy="256"
       r="219.18785" />
    <path
       style="fill:#000000;stroke:#000000;stroke-width:1.79008;stroke-dasharray:0, 19.6909"
       d="m 144.13976,400.06679 v -7.55545 l 11.18666,-0.18916 11.18666,-0.18916 0.3442,-139.74716 c 0.3258,-132.27378 0.40968,-139.86703 1.56854,-141.98826 0.67339,-1.23259 2.53209,-3.0913 4.13046,-4.13047 l 2.90612,-1.88937 h 47.50027 47.50028 l 2.9116,1.89283 c 5.25939,3.41914 5.69352,5.11648 5.69352,22.25986 v 14.91402 l 14.1124,14.06505 14.1124,14.06505 v 28.16215 c 0,26.12246 0.0872,28.20772 1.20472,28.79136 0.66259,0.34606 4.61234,0.77596 8.77722,0.95531 9.24423,0.39809 11.15518,1.22277 17.48017,7.54368 4.96813,4.96493 9.16549,14.40291 12.80054,28.78278 0.62213,2.46107 1.40866,5.40401 1.74785,6.53989 0.33918,1.13588 0.82608,3.45926 1.08199,5.16308 0.25591,1.70381 0.70293,3.40763 0.99338,3.78625 0.29044,0.37862 0.74852,2.46967 1.01795,4.64677 0.26943,2.17709 0.72394,3.95834 1.01003,3.95834 0.28609,0 0.7294,1.84927 0.98511,4.10949 0.25571,2.26023 0.7242,4.26973 1.04108,4.46557 0.31687,0.19584 0.79819,2.14143 1.06959,4.32354 0.2714,2.18209 0.69483,4.27722 0.94097,4.65585 0.24614,0.37862 0.80662,2.39222 1.24551,4.47467 0.76565,3.63272 1.95036,8.68154 4.1192,17.55443 0.55529,2.27176 1.27449,5.2147 1.59821,6.5399 0.32374,1.32519 0.96094,4.26814 1.41601,6.5399 0.45507,2.27175 1.1026,4.66837 1.43896,5.32583 0.84277,1.6473 0.77683,14.79884 -0.0768,15.32644 -0.37863,0.23401 -0.68841,1.07972 -0.68841,1.87935 0,0.79965 -0.98483,3.49198 -2.18853,5.98297 -2.4321,5.03313 -10.20854,13.34529 -14.33331,15.32072 -7.77959,3.7258 -7.47671,3.66495 -18.24286,3.66495 -10.76173,0 -10.54012,0.0446 -18.22349,-3.66495 -2.91288,-1.40633 -11.12925,-9.32516 -12.62569,-12.16848 -5.05851,-9.61142 -4.85812,-6.80859 -5.26648,-73.65983 l -0.37004,-60.58006 -6.5399,-0.20182 c -3.59694,-0.11101 -7.23826,-0.0273 -8.09183,0.18597 l -1.55194,0.3878 0.17512,75.8833 0.17512,75.88329 10.84245,0.18958 10.84245,0.18959 v 7.55503 7.55503 h -78.47874 -78.47871 z m 199.17965,-23.61445 c 4.29138,-2.35458 8.30159,-6.51427 10.26289,-10.64546 1.35944,-2.86346 1.55473,-4.36659 1.55257,-11.94987 -10e-4,-5.43957 -0.2937,-9.03366 -0.78343,-9.63775 -0.42953,-0.52982 -1.00522,-2.66714 -1.27933,-4.74958 -0.27409,-2.08244 -0.73877,-4.09604 -1.0326,-4.47466 -0.29385,-0.37863 -0.75851,-2.39223 -1.03262,-4.47467 -0.27411,-2.08244 -0.73879,-4.09603 -1.03262,-4.47466 -0.29383,-0.37863 -0.75924,-2.39222 -1.03424,-4.47466 -0.27499,-2.08245 -0.69691,-4.09604 -0.93759,-4.47467 -0.42734,-0.67226 -1.30422,-4.4078 -2.82795,-12.04716 -0.41537,-2.08244 -1.03197,-4.40582 -1.37022,-5.16307 -0.33826,-0.75725 -0.80478,-2.61596 -1.03673,-4.13046 -0.23194,-1.5145 -0.6842,-3.5281 -1.00504,-4.47466 -0.32085,-0.94656 -1.11749,-4.19931 -1.77033,-7.2283 -0.65284,-3.029 -1.42399,-5.98432 -1.71364,-6.56736 -0.28966,-0.58305 -0.75425,-2.75155 -1.03243,-4.81887 -0.27818,-2.06734 -0.74585,-4.06857 -1.03927,-4.4472 -0.29342,-0.37862 -0.75844,-2.08244 -1.03337,-3.78626 -0.27493,-1.7038 -0.73886,-3.40762 -1.03095,-3.78624 -0.2921,-0.37863 -0.75459,-1.73266 -1.02776,-3.00896 -0.79272,-3.70375 -4.52254,-10.40277 -7.35119,-13.2033 -1.43233,-1.41808 -4.06087,-3.07465 -5.84122,-3.68129 -4.02876,-1.37273 -10.78331,-1.46534 -11.86443,-0.16267 -1.04455,1.25861 -0.69127,117.14896 0.36995,121.35752 1.62939,6.46176 6.39187,12.04513 12.93239,15.16149 3.16421,1.50765 4.18818,1.63864 11.05957,1.41486 6.62972,-0.21591 7.98675,-0.47389 10.89959,-2.07209 z M 294.50099,228.90627 c 0.93348,-0.35821 1.08891,-2.07781 1.08891,-12.04717 v -11.62931 h -5.16307 -5.16307 v -16.71262 -16.71261 l -2.02643,-2.21865 c -4.27381,-4.67924 -4.16926,-5.37972 -4.16926,27.93369 0,22.53395 0.20872,30.36107 0.82609,30.97844 0.86473,0.86473 12.56505,1.19173 14.60683,0.40823 z m -27.99126,-24.24714 c 0.68357,-0.43395 0.82837,-9.80819 0.68841,-44.56398 l -0.17724,-44.01442 -43.88612,-0.17719 -43.88613,-0.1772 v 44.29279 c 0,24.36103 0.20653,44.49931 0.45895,44.75172 0.6579,0.65791 85.76241,0.54838 86.80213,-0.11172 z"
       id="path3152" />
    <text
       xml:space="preserve"
       id="text3190"
       style="font-style:normal;font-variant:normal;font-weight:normal;font-stretch:normal;font-size:40px;line-height:1.25;font-family:'Century Gothic';-inkscape-font-specification:'Century Gothic';letter-spacing:0px;word-spacing:0px;white-space:pre;shape-inside:url(#rect3192);fill:#008000;fill-opacity:1;stroke:none"
       transform="matrix(2.7950203,0,0,2.7950203,-425.61659,-353.22243)"><tspan
         x="222.67188"
         y="195.60382"
         id="tspan10872"><tspan
           style="font-family:'Berlin Sans FB';-inkscape-font-specification:'Berlin Sans FB'"
           id="tspan10870">€</tspan></tspan></text>
  </g>
</svg>
